<svg width="97" height="28" viewBox="0 0 97 28" fill="none" xmlns="http://www.w3.org/2000/svg">
<rect width="97" height="28" fill="#181717"/>
<path d="M37.9692 13.5903H41.0845V17.6616C40.6727 17.7977 40.2448 17.9069 39.8008 17.9893C39.3568 18.068 38.8537 18.1074 38.2915 18.1074C37.5109 18.1074 36.8485 17.9535 36.3042 17.6455C35.7599 17.3376 35.3464 16.8828 35.0635 16.2812C34.7806 15.6797 34.6392 14.9403 34.6392 14.063C34.6392 13.2394 34.7967 12.5269 35.1118 11.9253C35.4305 11.3237 35.8942 10.8582 36.5029 10.5288C37.1152 10.1994 37.8618 10.0347 38.7427 10.0347C39.158 10.0347 39.568 10.0794 39.9727 10.1689C40.3773 10.2585 40.7443 10.3748 41.0737 10.5181L40.5205 11.8501C40.2806 11.7284 40.0067 11.6263 39.6987 11.5439C39.3908 11.4616 39.0685 11.4204 38.7319 11.4204C38.2485 11.4204 37.8278 11.5314 37.4697 11.7534C37.1152 11.9754 36.8395 12.2869 36.6426 12.688C36.4492 13.0854 36.3525 13.5545 36.3525 14.0952C36.3525 14.6073 36.4224 15.062 36.562 15.4595C36.7017 15.8534 36.9219 16.1631 37.2227 16.3887C37.5234 16.6107 37.9155 16.7217 38.3989 16.7217C38.6353 16.7217 38.834 16.7109 38.9951 16.6895C39.1598 16.6644 39.3138 16.6393 39.457 16.6143V14.9761H37.9692V13.5903ZM45.159 18V10.1475H46.824V18H45.159ZM54.0299 18H52.3648V11.5332H50.2325V10.1475H56.1622V11.5332H54.0299V18ZM66.0053 18H64.3456V14.6108H61.2357V18H59.5707V10.1475H61.2357V13.2251H64.3456V10.1475H66.0053V18ZM76.5842 10.1475V15.2285C76.5842 15.7692 76.4642 16.258 76.2243 16.6948C75.988 17.1281 75.6281 17.4718 75.1447 17.7261C74.6649 17.9803 74.0598 18.1074 73.3293 18.1074C72.2909 18.1074 71.4995 17.8424 70.9553 17.3125C70.411 16.7826 70.1389 16.0807 70.1389 15.207V10.1475H71.7985V14.9546C71.7985 15.6027 71.931 16.0575 72.196 16.3188C72.461 16.5802 72.8531 16.7109 73.3723 16.7109C73.7375 16.7109 74.0329 16.6483 74.2585 16.5229C74.4877 16.3976 74.656 16.2043 74.7634 15.9429C74.8708 15.6815 74.9245 15.3485 74.9245 14.9438V10.1475H76.5842ZM80.707 10.1475H83.1509C84.1965 10.1475 84.9878 10.2943 85.5249 10.5879C86.062 10.8815 86.3306 11.3971 86.3306 12.1348C86.3306 12.432 86.2822 12.7005 86.1855 12.9404C86.0924 13.1803 85.9564 13.3773 85.7773 13.5312C85.5983 13.6852 85.3799 13.7855 85.1221 13.832V13.8857C85.3835 13.9395 85.6198 14.0326 85.8311 14.165C86.0423 14.2939 86.2106 14.4837 86.3359 14.7344C86.4648 14.9814 86.5293 15.3109 86.5293 15.7227C86.5293 16.1989 86.4129 16.6071 86.1802 16.9473C85.9474 17.2874 85.6144 17.5488 85.1812 17.7314C84.7515 17.9105 84.2394 18 83.645 18H80.707V10.1475ZM82.3721 13.2573H83.3389C83.8223 13.2573 84.1571 13.1821 84.3433 13.0317C84.5295 12.8778 84.6226 12.6522 84.6226 12.355C84.6226 12.0542 84.5116 11.8394 84.2896 11.7104C84.0711 11.578 83.7238 11.5117 83.2476 11.5117H82.3721V13.2573ZM82.3721 14.5786V16.625H83.457C83.9583 16.625 84.3075 16.5283 84.5044 16.335C84.7013 16.1416 84.7998 15.882 84.7998 15.5562C84.7998 15.3628 84.7568 15.1927 84.6709 15.0459C84.585 14.8991 84.4399 14.7845 84.2358 14.7021C84.0353 14.6198 83.7578 14.5786 83.4033 14.5786H82.3721Z" fill="white"/>
<g clip-path="url(#clip0_201_20)">
<path d="M17 6.198C12.58 6.198 9 9.78 9 14.198C9 17.7333 11.292 20.7313 14.47 21.788C14.87 21.8633 15.0167 21.616 15.0167 21.4033C15.0167 21.2133 15.01 20.71 15.0067 20.0433C12.7813 20.526 12.312 18.97 12.312 18.97C11.948 18.0467 11.422 17.8 11.422 17.8C10.6973 17.304 11.478 17.314 11.478 17.314C12.2813 17.37 12.7033 18.138 12.7033 18.138C13.4167 19.3613 14.576 19.008 15.0333 18.8033C15.1053 18.286 15.3113 17.9333 15.54 17.7333C13.7633 17.5333 11.896 16.8453 11.896 13.78C11.896 12.9067 12.206 12.1933 12.7193 11.6333C12.6293 11.4313 12.3593 10.618 12.7893 9.516C12.7893 9.516 13.4593 9.30133 14.9893 10.336C15.6293 10.158 16.3093 10.07 16.9893 10.066C17.6693 10.07 18.3493 10.158 18.9893 10.336C20.5093 9.30133 21.1793 9.516 21.1793 9.516C21.6093 10.618 21.3393 11.4313 21.2593 11.6333C21.7693 12.1933 22.0793 12.9067 22.0793 13.78C22.0793 16.8533 20.2093 17.53 18.4293 17.7267C18.7093 17.9667 18.9693 18.4573 18.9693 19.2067C18.9693 20.2773 18.9593 21.1373 18.9593 21.3973C18.9593 21.6073 19.0993 21.8573 19.5093 21.7773C22.71 20.728 25 17.728 25 14.198C25 9.78 21.418 6.198 17 6.198Z" fill="white"/>
</g>
<defs>
<clipPath id="clip0_201_20">
<rect width="16" height="16" fill="white" transform="translate(9 6)"/>
</clipPath>
</defs>
</svg>
